1,394415
2,497761
3,464635
4,495920
5,450386
6,501326
7,515318
8,463013
9,489340
10,486758
11,457537
12,518130
13,480235
14,513875
15,471109
16,474958
17,479214
18,450201
19,441513
20,484862
21,468806
22,490411
23,524688
24,489950
25,469621
26,484810
27,462869
28,444247
29,446500
30,515481
31,485914
32,498323
33,509479
34,469113
35,456787
36,484214
37,430437
38,416091
39,428661
40,469420
41,403019
42,398997
43,435287
44,453793
45,448304
46,459263
47,460398
48,419747
49,459138
50,499520
51,460879
52,455296
53,492096
54,461421
55,411754
56,416186
57,482667
58,467116
59,547975
60,548101
